754939 616597 509
520941 32750 470
555990 74784 470
748323 239805 509
539901 715296 509
401280 339154 441
529510 313817 470
249847 145139 443
235232 721648 509
168481 573580 470
979480 71199 525
219149 814617 509
610461 424245 470
121096 476465 449
288783 399260 441
556060 686324 509
235237 150587 443
81943 745230 509
883093 909792 445
844556 352666 525
187364 209947 373
358931 514217 470
91593 657669 509
747421 509679 509
277498 213140 443
745997 547689 509
796356 904728 525
780708 531108 509
5395 44975 324
181630 173773 365
294336 479923 449
392564 237146 441
5809 488539 449
156694 713393 509
71898 450579 449
501759 758560 509
163981 823451 509
647107 905651 525
885696 273732 525
865469 526629 525
372132 595339 470
16706 683349 509
339646 555783 470
254899 772925 509
889805 345710 525
949559 328946 525
836942 642910 504
627060 758050 504
855134 782404 525
873658 274898 525
424177 695285 509
993465 507944 525
2967 872026 525
146565 284698 443
882247 143437 525
510460 636383 509
500528 224171 449
351198 373769 410
779490 471759 509
186439 286552 443
528226 628281 509
386673 928011 525
855542 443782 525
402233 280491 441
69927 941837 525
792493 164213 509
715234 187462 509
590019 199210 470
556938 810453 509
823034 764449 468
496812 906996 525
188284 434746 449
711420 418653 509
624661 903604 525
464387 507915 426
496916 90548 449
407861 6397 443
90331 743497 509
113479 675300 509
299007 214947 443
909160 568791 525
603559 47465 470
198776 298325 443
892174 669767 525
691334 662270 442
304046 246086 407
104375 129084 354
89549 12121 351
202307 666541 509
23408 427125 449
118274 919204 525
219558 980462 525
352905 670042 509
76319 612748 470
860495 346282 525
852732 453872 525
253708 744796 509
254578 93681 443
86314 483347 449
945546 307170 525
463016 277161 449
926859 910995 445
36244 162924 383
911091 831904 525
715408 584002 509
949667 803691 525
348900 565238 470
934732 939016 445
469047 796453 509
349151 658102 509
342311 93154 443
357835 254649 441
10167 887921 525
920907 715698 525
356586 719835 509
104728 364326 443
389558 894128 525
309548 449147 449
564593 570992 421
944023 305243 525
787958 430148 509
758730 246945 509
383176 49297 443
987630 211561 525
642722 79961 509
830557 283945 509
766837 398989 509
663412 832331 504
462505 460248 444
74606 919675 525
335348 198682 443
73863 233236 443
899860 255762 525
972112 582104 525
42450 498089 449
922422 361595 525
700320 664379 442
412349 893966 525
595718 157995 470
417981 174026 449
582697 231040 470
866278 111897 525
772846 462495 509
137051 537372 470
74853 783998 509
614700 13000 470
584815 163060 470
842475 178957 525
497875 153867 449
52701 343347 443
66408 908790 525
668185 787132 504
930478 925309 476
36565 938184 525
297821 823233 509
88316 112066 354
381842 985077 525
117137 664912 509
520286 932240 525
48876 946448 525
758706 832901 468
661424 288698 509
866192 779044 525
290718 110475 443
791381 997276 525
841769 35125 525
752568 598093 509
459805 341110 449
850778 578202 525
749090 306350 509
302740 582924 470
710070 657027 504
565415 510438 470
501589 154336 449
906931 74436 525
493319 212475 449
676315 647373 442
913363 400937 525
549564 385935 470
482501 457780 444
946900 885493 507
591946 606951 403
305938 915087 525
63742 435655 449
958641 249691 525
247909 439872 449
415239 144271 449
68258 983866 525
220226 529058 470
508694 701425 509
681678 130609 509
242181 135879 443
337018 810504 509
43873 427131 449
220451 451688 449
969338 176640 525
598184 999582 525
307692 491021 449
764774 662649 504
701230 632455 442
366672 896324 525
235131 874061 525
254992 833137 509
558424 830062 509
579095 681681 509
682309 710530 504
60423 581097 470
439233 61070 449
476337 644033 509
598811 859974 525
35133 726656 509
161227 100525 383
738320 737037 380
732537 429642 509
170676 531939 470
