1 10 20
100 200 125
201 210 89
900 1000 174
194 384 144
926 279 179
485 169 144
291 458 144
421 618 142
117 87 119
112 763 171
590 670 145
946 109 179
472 960 179
278 91 128
714 466 171
245 429 144
531 891 179
93 859 171
582 638 132
594 507 137
917 78 179
27 559 144
535 448 142
176 3 125
534 640 137
765 123 171
661 63 145
583 132 144
22 860 171
223 735 171
326 819 171
516 856 171
709 608 171
66 642 144
598 11 144
501 514 124
88 527 144
72 975 179
974 599 179
977 859 179
590 742 171
333 251 144
156 916 179
382 177 144
127 956 179
263 804 171
127 778 171
660 835 171
738 77 171
829 335 171
88 329 144
200 527 144
207 623 144
501 533 124
221 478 144
391 811 171
571 724 171
413 726 171
639 794 171
902 117 179
750 516 171
921 228 179
294 932 179
62 383 144
8 242 128
717 447 171
922 268 179
326 129 131
890 826 179
13 462 144
655 403 145
624 225 144
126 36 119
302 116 128
830 555 171
233 931 179
71 505 144
158 716 171
436 571 142
98 795 171
165 166 112
242 86 128
433 567 142
566 674 145
744 578 171
135 399 144
333 759 171
623 810 171
146 277 128
926 327 179
831 510 171
257 901 179
366 766 171
616 801 171
689 65 145
595 853 171
582 188 144
290 366 144
106 208 125
39 850 171
137 526 144
248 469 144
284 222 128
279 429 144
498 556 137
756 329 171
417 364 134
581 782 171
482 549 142
934 522 179
613 528 137
726 195 171
716 15 171
560 173 144
574 951 179
22 63 113
476 621 142
531 759 171
195 161 125
539 44 144
68 646 144
724 836 153
362 305 144
969 843 179
853 902 179
364 817 171
430 89 144
363 497 142
455 923 179
669 381 145
873 43 179
443 348 134
15 325 131
458 209 144
838 348 171
253 905 179
346 328 126
741 707 140
632 61 144
901 836 179
963 616 179
5 744 171
56 367 144
240 862 171
289 260 123
242 513 144
654 36 145
212 669 145
361 21 144
229 550 144
369 833 171
454 66 144
161 546 144
124 144 122
607 24 144
332 921 179
991 336 179
664 46 145
702 903 179
259 343 144
514 501 124
207 520 144
888 771 179
540 600 137
791 768 153
149 511 144
953 955 37
576 113 144
500 699 145
608 458 142
74 939 179
378 64 144
626 41 144
461 680 145
295 720 171
374 161 144
572 580 119
680 459 145
350 219 144
411 493 142
986 559 179
3 290 128
513 931 179
754 365 171
629 362 142
822 703 171
652 552 145
118 630 144
592 579 119
309 239 123
650 682 145
399 221 144
613 78 144
31 315 131
296 441 144
807 633 171
1000 809 179
923 864 179
739 676 171
228 720 171
37 402 144
774 41 171
953 891 174
670 544 145
821 330 171
782 470 171
11 180 125
42 975 179
609 73 144
289 904 179
865 95 171
537 216 144
256 811 171
80 346 144
486 659 145
65 875 179
60 838 171
267 12 128
81 936 179
908 901 117
265 689 145
723 627 171
221 764 171
953 829 179
188 242 128
85 53 116
688 973 179
620 943 179
783 699 171
289 268 105
358 705 171
494 769 171
543 760 171
781 623 171
47 688 145
875 663 179
728 597 171
289 300 118
713 594 171
481 900 179
835 565 171
304 874 179
537 924 179
169 671 145
974 809 179
290 683 145
513 784 171
452 55 144
895 584 179
29 942 179
623 256 144
604 702 145
852 245 171
2 916 179
